Module 2 Report - DATA2002 Student Survey
…
4. Further Data Analysis

Our 3 additional questions.

Shoe Size vs Height

Re-coding the gender column:

x$Gender <- toupper(mapvalues(x$Gender %>% tolower,
                              from=c("female", "male", "man"),
                              to=c("f", "m", "m")))
x <- x %>% mutate(`Gender` = fct_lump(`Gender`, n = 2, other_level = NA))
x

## # A tibble: 110 x 24
##    Timestamp Identifier Gender `Postcode of wh `What statistic
##    <chr>     <chr>      <fct>             <dbl> <chr>           
##  1 15/08/20 lmhbali16  M                  2050 DATA1001        
##  2 15/08/20 <NA>       M                  2125 DATA1901        
##  3 15/08/20 Chives     F                  2071 STAT2011, BUSS1
##  4 15/08/20 Big Boi    M                  2257 DATA1001        
##  5 15/08/20 <NA>       M                  2050 STAT2911, ECMT1
##  6 15/08/20 cHICKen L M                  2190 DATA1001        
##  7 15/08/20 <NA>       M                  2008 DATA1001        
##  8 15/08/20 <NA>       F                  2069 DATA1001        
##  9 15/08/20 maia       F                  2141 MATH1905, STAT2
## 10 15/08/20 Jonothor  M                  2119 BUSS1020        
## #  with 100 more rows, and 19 more variables: `How many university clubs
## #   are you a member of?` <dbl>, `How long has it been since you last went
## #   to the dentist?` <chr>, `On average, how many hours per week did you
## #   spend on university work last semester?` <dbl>, `What is your
## #   favourite social media platform?` <chr>, `How many siblings do you
## #   have?` <dbl>, `Did you have a pet growing up?` <chr>, `Do you
## #   currently live with your parents?` <chr>, `How many hours a week do
## #   you spend exercising?` <dbl>, `What is your eye colour?` <chr>, `How
## #   many hours per week do you work in paid employment?` <dbl>, `What is
…
